"Age-Adjusted Death Rate - deaths per 100,000"	Average Annual Count	Display Order		Health Care Access	Health Care Quality	Health Care Rank		Lower 95% Confidence Interval 1	Lower 95% Confidence Interval	Met Healthy People Objective of 161.4?		Public Health	Rate	Recent 5-Year Trend in Death Rates	Recent Trend	State		Upper 95% Confidence Interval 1	Upper 95% Confidence Interval
201.5	10004	1		16	45	44		-1.3	199.7	No		45	513.7	-1.1	falling	Kentucky		-0.9	203.3
174.7	1925	2		12	32	22		-1.8	171.1	No		28	488.1	-1.6	falling	Delaware		-1.4	178.2
191	9324	3		32	41	45		-1.7	189.2	No		44	478.7	-1.5	falling	Louisiana		-1.4	192.7
174.3	28811	4		13	19	18		-1.6	173.4	No		29	477.3	-1.5	falling	Pennsylvania		-1.4	175.3
157.7	35581	5		15	40	13		-1.6	157	Yes		4	476.5	-1.4	falling	New York		-1.2	158.5
178.1	3222	6		18	2	16		-1.9	175.3	No		38	474.6	-1.6	falling	Maine		-1.3	181
161.3	16582	7		17	20	8		-2.2	160.2	Yes		2	472.8	-2	falling	New Jersey		-1.9	162.4
168.9	6458	8		5	9	5		-1	167.1	No		14	471.9	-0.9	falling	Iowa		-0.8	170.8
169.8	2230	9		7	13	7		-1.8	166.5	No		8	469.8	-1.6	falling	Rhode Island		-1.4	173
153.4	6742	10		4	48	12		-2.3	151.7	Yes		6	467	-2.1	falling	Connecticut		-1.8	155.1
166.1	2641	11		9	4	4		-1.6	163.2	No		10	464.2	-1.5	falling	New Hampshire		-1.3	169
197.3	6421	12		48	47	49		-1.1	195.1	No		47	462.1	-1	falling	Mississippi		-0.8	199.5
194.5	4750	13		11	49	46		-1.1	192	No		49	461	-1	falling	West Virginia		-0.9	197
173.8	24326	14		21	42	32		-1.6	172.8	No		30	460.4	-1.4	falling	Illinois		-1.2	174.8
168.1	11391	15		14	34	21		-1.1	166.7	No		23	459	-1	falling	Wisconsin		-1	169.5
157.8	9555	16		8	8	3		-2.9	156.4	Yes		7	457.7	-2.1	falling	Minnesota		-1.3	159.2
189.2	6549	17		38	50	50		-0.9	187.1	No		48	456.2	-0.8	falling	Arkansas		-0.7	191.2
163	12879	18		1	15	2		-2.1	161.7	No		5	453.8	-2	falling	Massachusetts		-1.8	164.3
169.7	16032	19		45	27	38		-1.8	168.5	No		36	453.4	-1.6	falling	Georgia		-1.4	170.9
181.6	25181	20		26	17	29		-1.3	180.6	No		39	452.1	-1.2	falling	Ohio		-1.1	182.7
163.4	1645	21		35	6	17		-1.2	159.8	No		20	450.1	-0.9	falling	South Dakota		-0.7	167
167.5	5442	22		22	18	23		-1.4	165.5	No		32	449.1	-1.2	falling	Kansas		-0.9	169.5
172	18536	23		27	21	27		-1.7	170.9	No		34	448.8	-1.5	falling	North Carolina		-1.3	173.1
170.8	1352	24		3	14	6		-1.4	166.6	No		13	447.2	-1.2	falling	Vermont		-1.1	175
180.5	12808	25		29	28	35		-1.4	179.1	No		37	447	-1.2	falling	Missouri		-1.1	181.9
188.2	13809	26		34	33	42		-1.6	186.7	No		43	445.7	-1.4	falling	Tennessee		-1.2	189.6
163	3449	27		23	23	20		-1	160.5	No		15	443.6	-0.8	falling	Nebraska		-0.7	165.5
161.8	11992	29		10	12	9		-2	160.5	No		11	442.1	-1.7	falling	Washington		-1.5	163.1
187.2	7968	30		46	39	48		-1	185.3	No		46	442	-0.8	falling	Oklahoma		-0.7	189
165.3	10482	31		6	36	14		-2	163.9	No		18	439.5	-1.9	falling	Maryland		-1.8	166.8
184.4	10263	32		41	31	47		-2.4	182.8	No		50	437.9	-1.9	falling	Alabama		-1.4	186.1
175.5	20614	33		19	38	34		-1.2	174.4	No		35	437.3	-1.1	falling	Michigan		-1	176.6
183.2	13298	34		33	35	41		-1.4	181.8	No		42	435.8	-1.3	falling	Indiana		-1.2	184.6
177.8	9660	35		39	30	39		-1.6	176.2	No		41	433.3	-1.5	falling	South Carolina		-1.3	179.4
154	1287	36		28	10	19		-1.4	150.2	Yes		21	431.4	-1.2	falling	North Dakota		-1.1	157.9
157.8	1992	37		43	29	36		-2.1	154.7	Yes		25	431.2	-1.8	falling	Montana		-1.5	161
156.1	2635	38		44	44	40		-1.1	153.4	Yes		24	420.4	-0.9	falling	Idaho		-0.8	158.8
166.2	14382	39		20	46	25		-1.9	165	No		16	416.5	-1.8	falling	Virginia		-1.6	167.4
157.6	42256	40		49	22	31		-1.8	156.9	Yes		17	410	-1.6	falling	Florida		-1.5	158.2
167.3	7787	41		36	11	24		-1.7	165.6	No		31	409.6	-1.6	falling	Oregon		-1.4	169
172.2	946	42		50	1	33		-1.4	166.9	No		40	406.6	-1.2	falling	Alaska		-1	177.6
159.5	37894	44		47	24	30		-1.9	158.7	Yes		19	402.2	-1.8	falling	Texas		-1.7	160.2
149.7	57340	45		24	16	10		-1.8	149.2	Yes		3	399.6	-1.7	falling	California		-1.5	150.3
153.6	955	46		42	43	43		-2.1	149.2	Yes		33	399.6	-1.7	falling	Wyoming		-1.4	158.1
128.6	2889	47		31	7	15		-1.3	126.4	Yes		12	396	-1.1	falling	Utah		-0.9	130.7
142.3	7231	48		25	5	11		-2	140.8	Yes		9	395.8	-1.7	falling	Colorado		-1.5	143.8
147.4	11051	49		37	25	28		-1.6	146.2	Yes		22	379.8	-1.1	falling	Arizona		-0.7	148.7
167.2	4715	50		40	37	37		-2.1	165.1	No		27	374.9	-1.9	falling	Nevada		-1.6	169.4
146.5	3421	51		30	26	26		-1.8	144.3	Yes		26	369.9	-1.5	falling	New Mexico		-1.2	148.8
